Sección 7 R | Temas Selectos de Análisis Numérico y Computación Científica: Computo científico para el análisis de datos
…
El paquete data.table nos ayuda a optimizar el guardar e importar grandes bases de datos. Las funciones para importar o guardar las bases de datos en este paquete son fread() y fwrite. Estas funciones se pueden usar con varios tipos de archivos no solo con .csv, además por lo general reconoce los separadores que usan.

library(data.table)
iris_table <- fread("D:/Users/hayde/Documents/R_sites/Computo_Cientifico/data/iris.csv", header = TRUE)

En el caso de archivos .xlsx, usamos el paquete readxl y la función para importar archivos es read_excel().

7.5.1 tibbles

Los tibbles son otro tipo de objetos de R del paquete tidyverse. Vamos a convertir el data frame iri en un objeto tibble usando la función as_tibble

library(tidyverse)
as_tibble(iris)

## # A tibble: 150 × 5
##    Sepal.Length Sepal.Width Petal.Length Petal.Width Species
##           <dbl>       <dbl>        <dbl>       <dbl> <chr>  
##  1          5.1         3.5          1.4         0.2 setosa 
##  2          4.9         3            1.4         0.2 setosa 
##  3          4.7         3.2          1.3         0.2 setosa 
##  4          4.6         3.1          1.5         0.2 setosa 
##  5          5           3.6          1.4         0.2 setosa 
##  6          5.4         3.9          1.7         0.4 setosa 
##  7          4.6         3.4          1.4         0.3 setosa 
##  8          5           3.4          1.5         0.2 setosa 
##  9          4.4         2.9          1.4         0.2 setosa 
## 10          4.9         3.1          1.5         0.1 setosa 
## # ℹ 140 more rows
…
